(module ABK-PRO-MINI (layer F.Cu) (tedit 0)
  (descr ABK-PRO-MINI)
  (fp_text reference U$1 (at 0 0) (layer F.SilkS) hide
    (effects (font (size 1.27 1.27) (thickness 0.15)))
  )
  (fp_text value ABK-PRO-MINI (at 0 0) (layer F.SilkS) hide
    (effects (font (size 1.27 1.27) (thickness 0.15)))
  )
  (pad GND2 thru_hole oval (at -3.81 -8.89 90) (size 2.616 1.308) (drill 0.8) (layers *.Cu *.Mask)
    (solder_mask_margin 0.1016))
  (pad GND3 thru_hole oval (at -1.27 -8.89 90) (size 2.616 1.308) (drill 0.8) (layers *.Cu *.Mask)
    (solder_mask_margin 0.1016))
  (pad VCC1 thru_hole oval (at 1.27 -8.89 90) (size 2.616 1.308) (drill 0.8) (layers *.Cu *.Mask)
    (solder_mask_margin 0.1016))
  (pad RX1-1 thru_hole oval (at 3.81 -8.89 90) (size 2.616 1.308) (drill 0.8) (layers *.Cu *.Mask)
    (solder_mask_margin 0.1016))
  (pad TX0-1 thru_hole oval (at 6.35 -8.89 90) (size 2.616 1.308) (drill 0.8) (layers *.Cu *.Mask)
    (solder_mask_margin 0.1016))
  (pad DTR thru_hole oval (at 8.89 -8.89 90) (size 2.616 1.308) (drill 0.8) (layers *.Cu *.Mask)
    (solder_mask_margin 0.1016))
  (pad TX0 thru_hole oval (at -5.08 -6.35 180) (size 2.616 1.308) (drill 0.8) (layers *.Cu *.Mask)
    (solder_mask_margin 0.1016))
  (pad RX1 thru_hole oval (at -5.08 -3.81 180) (size 2.616 1.308) (drill 0.8) (layers *.Cu *.Mask)
    (solder_mask_margin 0.1016))
  (pad RST1 thru_hole oval (at -5.08 -1.27 180) (size 2.616 1.308) (drill 0.8) (layers *.Cu *.Mask)
    (solder_mask_margin 0.1016))
  (pad GND1 thru_hole oval (at -5.08 1.27 180) (size 2.616 1.308) (drill 0.8) (layers *.Cu *.Mask)
    (solder_mask_margin 0.1016))
  (pad D2 thru_hole oval (at -5.08 3.81 180) (size 2.616 1.308) (drill 0.8) (layers *.Cu *.Mask)
    (solder_mask_margin 0.1016))
  (pad D3 thru_hole oval (at -5.08 6.35 180) (size 2.616 1.308) (drill 0.8) (layers *.Cu *.Mask)
    (solder_mask_margin 0.1016))
  (pad D4 thru_hole oval (at -5.08 8.89 180) (size 2.616 1.308) (drill 0.8) (layers *.Cu *.Mask)
    (solder_mask_margin 0.1016))
  (pad D5 thru_hole oval (at -5.08 11.43 180) (size 2.616 1.308) (drill 0.8) (layers *.Cu *.Mask)
    (solder_mask_margin 0.1016))
  (pad D6 thru_hole oval (at -5.08 13.97 180) (size 2.616 1.308) (drill 0.8) (layers *.Cu *.Mask)
    (solder_mask_margin 0.1016))
  (pad D7 thru_hole oval (at -5.08 16.51 180) (size 2.616 1.308) (drill 0.8) (layers *.Cu *.Mask)
    (solder_mask_margin 0.1016))
  (pad D8 thru_hole oval (at -5.08 19.05 180) (size 2.616 1.308) (drill 0.8) (layers *.Cu *.Mask)
    (solder_mask_margin 0.1016))
  (pad D9 thru_hole oval (at -5.08 21.59 180) (size 2.616 1.308) (drill 0.8) (layers *.Cu *.Mask)
    (solder_mask_margin 0.1016))
  (pad RAW thru_hole oval (at 10.16 -6.35 180) (size 2.616 1.308) (drill 0.8) (layers *.Cu *.Mask)
    (solder_mask_margin 0.1016))
  (pad GND thru_hole oval (at 10.16 -3.81 180) (size 2.616 1.308) (drill 0.8) (layers *.Cu *.Mask)
    (solder_mask_margin 0.1016))
  (pad RST thru_hole oval (at 10.16 -1.27 180) (size 2.616 1.308) (drill 0.8) (layers *.Cu *.Mask)
    (solder_mask_margin 0.1016))
  (pad VCC thru_hole oval (at 10.16 1.27 180) (size 2.616 1.308) (drill 0.8) (layers *.Cu *.Mask)
    (solder_mask_margin 0.1016))
  (pad A0 thru_hole oval (at 10.16 3.81 180) (size 2.616 1.308) (drill 0.8) (layers *.Cu *.Mask)
    (solder_mask_margin 0.1016))
  (pad A1 thru_hole oval (at 10.16 6.35 180) (size 2.616 1.308) (drill 0.8) (layers *.Cu *.Mask)
    (solder_mask_margin 0.1016))
  (pad A2 thru_hole oval (at 10.16 8.89 180) (size 2.616 1.308) (drill 0.8) (layers *.Cu *.Mask)
    (solder_mask_margin 0.1016))
  (pad A3 thru_hole oval (at 10.16 11.43 180) (size 2.616 1.308) (drill 0.8) (layers *.Cu *.Mask)
    (solder_mask_margin 0.1016))
  (pad D13 thru_hole oval (at 10.16 13.97 180) (size 2.616 1.308) (drill 0.8) (layers *.Cu *.Mask)
    (solder_mask_margin 0.1016))
  (pad D12 thru_hole oval (at 10.16 16.51 180) (size 2.616 1.308) (drill 0.8) (layers *.Cu *.Mask)
    (solder_mask_margin 0.1016))
  (pad D11 thru_hole oval (at 10.16 19.05 180) (size 2.616 1.308) (drill 0.8) (layers *.Cu *.Mask)
    (solder_mask_margin 0.1016))
  (pad D10 thru_hole oval (at 10.16 21.59 180) (size 2.616 1.308) (drill 0.8) (layers *.Cu *.Mask)
    (solder_mask_margin 0.1016))
  (pad A7 thru_hole oval (at 6.35 21.59 270) (size 2.616 1.308) (drill 0.8) (layers *.Cu *.Mask)
    (solder_mask_margin 0.1016))
  (pad A6 thru_hole oval (at 3.81 21.59 270) (size 2.616 1.308) (drill 0.8) (layers *.Cu *.Mask)
    (solder_mask_margin 0.1016))
  (pad GND4 thru_hole oval (at 1.27 21.59 270) (size 2.616 1.308) (drill 0.8) (layers *.Cu *.Mask)
    (solder_mask_margin 0.1016))
  (pad A5 thru_hole circle (at 6.35 2.54 270) (size 1.308 1.308) (drill 0.8) (layers *.Cu *.Mask)
    (solder_mask_margin 0.1016))
  (pad A4 thru_hole circle (at 6.35 5.08 270) (size 1.308 1.308) (drill 0.8) (layers *.Cu *.Mask)
    (solder_mask_margin 0.1016))
)
