(module KEYSTONE_1042_0 (layer F.Cu) (tedit 0)
  (descr "PC BATTERY HOLDER 18650")
  (fp_text reference UNK18650 (at -36.515 -11.85) (layer F.SilkS)
    (effects (font (size 0.95 0.95) (thickness 0.076)) (justify left bottom))
  )
  (fp_text value KEYSTONE_1042KEYSTONE_1042_0_0 (at 0 0) (layer F.SilkS) hide
    (effects (font (size 1.27 1.27) (thickness 0.15)))
  )
  (fp_line (start -38.525 10.325) (end -38.525 -10.325) (layer F.Fab) (width 0.15))
  (fp_line (start -38.525 -10.325) (end 38.525 -10.325) (layer F.Fab) (width 0.15))
  (fp_line (start 38.525 -10.325) (end 38.525 10.325) (layer F.Fab) (width 0.15))
  (fp_line (start 38.525 10.325) (end -38.525 10.325) (layer F.Fab) (width 0.15))
  (fp_line (start -43.5 10.55) (end -43.5 -10.55) (layer Dwgs.User) (width 0.1))
  (fp_line (start -43.5 -10.55) (end 43.5 -10.55) (layer Dwgs.User) (width 0.1))
  (fp_line (start 43.5 -10.55) (end 43.5 10.55) (layer Dwgs.User) (width 0.1))
  (fp_line (start 43.5 10.55) (end -43.5 10.55) (layer Dwgs.User) (width 0.1))
  (fp_line (start 38.525 10.325) (end -38.525 10.325) (layer F.SilkS) (width 0.15))
  (fp_line (start 38.525 -10.325) (end -38.525 -10.325) (layer F.SilkS) (width 0.15))
  (fp_circle (center -44.275 0) (end -44.15 0) (layer F.SilkS) (width 0.25))
  (pad "" np_thru_hole circle (at -27.6 8) (size 3.45 3.45) (drill 3.45) (layers *.Cu *.Mask))
  (pad "" np_thru_hole circle (at 27.6 -8) (size 3.45 3.45) (drill 3.45) (layers *.Cu *.Mask))
  (pad "" np_thru_hole circle (at 35.82 8) (size 2.39 2.39) (drill 2.39) (layers *.Cu *.Mask))
  (pad 1 smd rect (at -39.67 0) (size 7.46 6.47) (layers F.Cu F.Paste F.Mask)
    (solder_mask_margin 0.1016))
  (pad 2 smd rect (at 39.67 0) (size 7.46 6.47) (layers F.Cu F.Paste F.Mask)
    (solder_mask_margin 0.1016))
)
